<svg id="approach" xmlns="http://www.w3.org/2000/svg" xmlns:xlink="http://www.w3.org/1999/xlink" viewBox="0 0 135.43 135.78">
  <defs>
    <style>
      .cls-1, .cls-25, .cls-26, .cls-6 {
        fill: #fff;
      }

      .cls-12, .cls-13, .cls-15, .cls-16, .cls-2 {
        fill: #6f6f6e;
        font-size: 2px;
        font-family: SegoeUI-Light, Segoe UI;
        font-weight: 300;
      }

      .cls-3, .cls-9 {
        font-size: 2.55px;
      }

      .cls-23, .cls-24, .cls-3, .cls-9 {
        font-family: SegoeUI-Bold, Segoe UI;
        font-weight: 700;
      }

      .cls-10, .cls-3 {
        letter-spacing: 0.047em;
      }

      .cls-4, .cls-9 {
        letter-spacing: -0.027em;
      }

      .cls-5 {
        fill: url(#linear-gradient);
      }

      .cls-23, .cls-6 {
        font-size: 5px;
      }

      .cls-6 {
        font-family: SegoeUIBlack, Segoe UI;
      }

      .cls-7 {
        fill: url(#linear-gradient-2);
      }

      .cls-16, .cls-8 {
        letter-spacing: 0.02em;
      }

      .cls-11 {
        fill: url(#linear-gradient-3);
      }

      .cls-12 {
        letter-spacing: 0.01em;
      }

      .cls-13 {
        letter-spacing: -0.01em;
      }

      .cls-14 {
        letter-spacing: 0.059em;
      }

      .cls-15 {
        letter-spacing: -0.02em;
      }

      .cls-17 {
        fill: url(#linear-gradient-4);
      }

      .cls-18 {
        fill: url(#linear-gradient-5);
      }

      .cls-19 {
        fill: url(#linear-gradient-6);
      }

      .cls-20 {
        fill: url(#linear-gradient-7);
      }

      .cls-21 {
        fill: url(#linear-gradient-8);
      }

      .cls-22 {
        fill: url(#linear-gradient-9);
      }

      .cls-23 {
        letter-spacing: 0.05em;
      }

      .cls-24 {
        font-size: 3.5px;
        letter-spacing: 0.04em;
      }

      .cls-25 {
        font-size: 4px;
      }

      .cls-25, .cls-26 {
        font-family: SegoeUI, Segoe UI;
      }

      .cls-26 {
        font-size: 3px;
      }

      .cls-27 {
        filter: url(#path2142);
      }

      .cls-28 {
        filter: url(#path2144);
      }

      .cls-29 {
        filter: url(#path2146);
      }

      .cls-30 {
        filter: url(#path2156);
      }
    </style>
    <filter id="path2156" x="63.91" y="66.78" width="69" height="69" filterUnits="userSpaceOnUse">
      <feOffset dy="3" input="SourceAlpha"/>
      <feGaussianBlur stdDeviation="3" result="blur"/>
      <feFlood flood-opacity="0.161"/>
      <feComposite operator="in" in2="blur"/>
      <feComposite in="SourceGraphic"/>
    </filter>
    <linearGradient id="linear-gradient" y1="0.5" x2="1" y2="0.5" gradientUnits="objectBoundingBox">
      <stop offset="0.33" stop-color="#007d94"/>
      <stop offset="0.44" stop-color="#006f8f"/>
      <stop offset="0.65" stop-color="#004a83"/>
      <stop offset="0.93" stop-color="#010f6f"/>
      <stop offset="1" stop-color="#01006a"/>
    </linearGradient>
    <filter id="path2146" x="0" y="66.78" width="69" height="69" filterUnits="userSpaceOnUse">
      <feOffset dy="3" input="SourceAlpha"/>
      <feGaussianBlur stdDeviation="3" result="blur-2"/>
      <feFlood flood-opacity="0.161"/>
      <feComposite operator="in" in2="blur-2"/>
      <feComposite in="SourceGraphic"/>
    </filter>
    <linearGradient id="linear-gradient-2" x1="-0.081" y1="0.08" x2="0.919" y2="1.081" gradientUnits="objectBoundingBox">
      <stop offset="0" stop-color="#3f9cff"/>
      <stop offset="1" stop-color="#007d94"/>
    </linearGradient>
    <filter id="path2144" x="63.91" y="3.53" width="69" height="69" filterUnits="userSpaceOnUse">
      <feOffset dy="3" input="SourceAlpha"/>
      <feGaussianBlur stdDeviation="3" result="blur-3"/>
      <feFlood flood-opacity="0.161"/>
      <feComposite operator="in" in2="blur-3"/>
      <feComposite in="SourceGraphic"/>
    </filter>
    <linearGradient id="linear-gradient-3" x1="0.081" y1="-0.08" x2="1.08" y2="0.919" gradientUnits="objectBoundingBox">
      <stop offset="0" stop-color="#002d6a"/>
      <stop offset="1" stop-color="#5900b1"/>
    </linearGradient>
    <filter id="path2142" x="0" y="3.53" width="69.04" height="69" filterUnits="userSpaceOnUse">
      <feOffset dy="3" input="SourceAlpha"/>
      <feGaussianBlur stdDeviation="3" result="blur-4"/>
      <feFlood flood-opacity="0.161"/>
      <feComposite operator="in" in2="blur-4"/>
      <feComposite in="SourceGraphic"/>
    </filter>
    <linearGradient id="linear-gradient-4" x1="0.132" y1="0.132" x2="0.707" y2="0.707" gradientUnits="objectBoundingBox">
      <stop offset="0" stop-color="#002d6a"/>
      <stop offset="0.14" stop-color="#063778"/>
      <stop offset="0.39" stop-color="#16539d"/>
      <stop offset="0.74" stop-color="#2f7fd8"/>
      <stop offset="0.96" stop-color="#3f9cff"/>
    </linearGradient>
    <linearGradient id="linear-gradient-5" y1="0.5" x2="1" y2="0.5" gradientUnits="objectBoundingBox">
      <stop offset="0" stop-color="#3f9cff"/>
      <stop offset="0.51" stop-color="#003a4a"/>
    </linearGradient>
    <linearGradient id="linear-gradient-6" y1="0.5" x2="1" y2="0.5" gradientUnits="objectBoundingBox">
      <stop offset="0" stop-color="#003a4a" stop-opacity="0.988"/>
      <stop offset="0.27" stop-color="#00384b" stop-opacity="0.988"/>
      <stop offset="0.37" stop-color="#00314f" stop-opacity="0.988"/>
      <stop offset="0.44" stop-color="#002555" stop-opacity="0.988"/>
      <stop offset="0.5" stop-color="#01145f"/>
      <stop offset="0.55" stop-color="#01006a"/>
    </linearGradient>
    <linearGradient id="linear-gradient-7" y1="0.5" x2="1" y2="0.5" gradientUnits="objectBoundingBox">
      <stop offset="0.47" stop-color="#007d94"/>
      <stop offset="0.52" stop-color="#006f8f"/>
      <stop offset="0.62" stop-color="#004a83"/>
      <stop offset="0.75" stop-color="#010f6f"/>
      <stop offset="0.79" stop-color="#01006a"/>
    </linearGradient>
    <linearGradient id="linear-gradient-8" x1="0" y1="0.501" x2="0.998" y2="0.501" xlink:href="#linear-gradient-2"/>
    <linearGradient id="linear-gradient-9" x1="0.854" y1="0.854" x2="0.152" y2="0.152" gradientUnits="objectBoundingBox">
      <stop offset="0" stop-color="#fff"/>
      <stop offset="1" stop-color="#d9d9d9"/>
    </linearGradient>
  </defs>
  <g id="for_web" transform="translate(-8.57 -8)">
    <rect id="Wrapper" class="cls-1" width="135" height="133" transform="translate(9 8)"/>
    <g id="ELEMENTS">
      <g id="lower_right">
        <g class="cls-30" transform="matrix(1, 0, 0, 1, 8.57, 8)">
          <path id="path2156-2" data-name="path2156" class="cls-1" d="M81.48,80.78h44.39a6.61,6.61,0,0,1,6.61,6.61v37.78a6.61,6.61,0,0,1-6.61,6.61H88.09a6.61,6.61,0,0,1-6.61-6.61V80.78Z" transform="translate(-8.57 -8)"/>
        </g>
        <g id="Plan">
          <text id="_" data-name="• " class="cls-2" transform="translate(90.65 116.81)"><tspan x="0" y="0">• </tspan></text>
          <text id="P" class="cls-2" transform="translate(91.64 116.81)"><tspan x="0" y="0">P</tspan></text>
          <text id="lan" class="cls-2" transform="translate(92.69 116.81)"><tspan x="0" y="0">lan</tspan></text>
        </g>
        <g id="Strategy">
          <text id="_2" data-name="• " class="cls-2" transform="translate(90.61 119.21)"><tspan x="0" y="0">• </tspan></text>
          <text id="S" class="cls-2" transform="translate(91.6 119.21)"><tspan x="0" y="0">S</tspan></text>
          <text id="t" class="cls-2" transform="translate(92.58 119.21)"><tspan x="0" y="0">t</tspan></text>
          <text id="rat" class="cls-2" transform="translate(93.24 119.21)"><tspan x="0" y="0">rat</tspan></text>
          <text id="egy" class="cls-2" transform="translate(95.49 119.21)"><tspan x="0" y="0">egy</tspan></text>
        </g>
        <text id="ANALYZE" class="cls-3" transform="translate(90.77 108.73)"><tspan x="0" y="3">ANA</tspan><tspan class="cls-4" y="3">L</tspan><tspan y="3">YZE</tspan></text>
        <g id="Corner">
          <path id="path2352" class="cls-5" d="M125.86,131.78h-8.09a14.7,14.7,0,0,1,14.71-14.7v8.09a6.61,6.61,0,0,1-6.62,6.61Z"/>
          <text id="_03" data-name="03" class="cls-6" transform="translate(122 127.66)"><tspan x="0" y="0">03</tspan></text>
        </g>
        <g id="Icon" transform="translate(-638 -422)">
          <path id="Path_1051" data-name="Path 1051" d="M118.11,90.86a3.162,3.162,0,0,0-.93,2.25,3.1,3.1,0,0,0,.65,1.9l-2.29,2.29.64.64,2.29-2.29a3.173,3.173,0,0,0,4.15-4.78A3.246,3.246,0,0,0,118.11,90.86Zm3.86,3.86a2.344,2.344,0,0,1-3.23,0,2.291,2.291,0,0,1,3.24-3.24,2.244,2.244,0,0,1,.67,1.62A2.277,2.277,0,0,1,121.97,94.72Z" transform="translate(636 423)"/>
          <path id="Path_1052" data-name="Path 1052" d="M118.91,93.11h.9a.555.555,0,0,1,.55-.55v-.9A1.451,1.451,0,0,0,118.91,93.11Z" transform="translate(636 423)"/>
        </g>
      </g>
      <g id="lower_left">
        <g class="cls-29" transform="matrix(1, 0, 0, 1, 8.57, 8)">
          <path id="path2146-2" data-name="path2146" class="cls-1" d="M24.18,80.78H68.57v44.39A6.61,6.61,0,0,1,62,131.78H24.18a6.61,6.61,0,0,1-6.61-6.61V87.39a6.61,6.61,0,0,1,6.61-6.61Z" transform="translate(-8.57 -8)"/>
        </g>
        <text id="KEEP_ALIVE" data-name="KEEP ALIVE" class="cls-3" transform="translate(33.55 111.73)"><tspan x="0" y="0">KEEP ALIVE</tspan></text>
        <path id="path2166" d="M35.21,90.35l-.64-.64-.86.86a4.42,4.42,0,1,0,.64.64ZM34.44,94a3.5,3.5,0,1,1-1.36-2.74l-.63.62A2.53,2.53,0,0,0,31,91.36,2.59,2.59,0,1,0,33.56,94a2.53,2.53,0,0,0-.47-1.48l.62-.63A3.46,3.46,0,0,1,34.44,94Zm-1.78,0a1.7,1.7,0,1,1-.86-1.47l-.76.76H30.9a.73.73,0,1,0,.73.73h0l.81-.81a1.69,1.69,0,0,1,.22.79Z"/>
        <g id="Corner-2" data-name="Corner">
          <path id="path2354" class="cls-7" d="M17.57,125.17v-8.09a14.71,14.71,0,0,1,14.71,14.7h-8.1a6.61,6.61,0,0,1-6.61-6.61Z"/>
          <text id="_04" data-name="04" class="cls-6" transform="translate(20 127.5)"><tspan x="0" y="0">04</tspan></text>
        </g>
        <text id="_Support" data-name="• Support" class="cls-2" transform="translate(33.55 116.81)"><tspan x="0" y="0">• Suppo</tspan><tspan class="cls-8" y="0">r</tspan><tspan y="0">t</tspan></text>
      </g>
      <g id="upper_right">
        <g class="cls-28" transform="matrix(1, 0, 0, 1, 8.57, 8)">
          <path id="path2144-2" data-name="path2144" class="cls-1" d="M88.09,17.53h37.78a6.61,6.61,0,0,1,6.61,6.61V61.92a6.61,6.61,0,0,1-6.61,6.61H81.48V24.14a6.61,6.61,0,0,1,6.61-6.61Z" transform="translate(-8.57 -8)"/>
        </g>
        <text id="TAKE_ON" data-name="TAKE ON" class="cls-9" transform="translate(90.77 28.89)"><tspan x="0" y="0">T</tspan><tspan class="cls-10" y="0">AKE ON</tspan></text>
        <path id="path2350" class="cls-11" d="M132.48,24.14v8.1a14.71,14.71,0,0,1-14.71-14.71h8.09a6.61,6.61,0,0,1,6.62,6.61Z"/>
        <text id="_02" data-name="02" class="cls-6" transform="translate(122.67 25.06)"><tspan x="0" y="0">02</tspan></text>
        <g id="Mantain">
          <text id="_3" data-name="• " class="cls-2" transform="translate(90.77 33.98)"><tspan x="0" y="0">• </tspan></text>
          <text id="M" class="cls-12" transform="translate(91.76 33.98)"><tspan x="0" y="0">M</tspan></text>
          <text id="a" class="cls-2" transform="translate(93.38 33.98)"><tspan x="0" y="0">a</tspan></text>
          <text id="n" class="cls-2" transform="translate(94.34 33.98)"><tspan x="0" y="0">n</tspan></text>
          <text id="tain" class="cls-2" transform="translate(95.44 33.98)"><tspan x="0" y="0">tain</tspan></text>
        </g>
        <g id="Optimize">
          <text id="_Optimi" data-name="• Optimi" class="cls-2" transform="translate(90.69 36.38)"><tspan x="0" y="0">• Optimi</tspan></text>
          <text id="z" class="cls-13" transform="translate(97.46 36.38)"><tspan x="0" y="0">z</tspan></text>
          <text id="e" class="cls-2" transform="translate(98.3 36.38)"><tspan x="0" y="0">e</tspan></text>
        </g>
        <g id="iCON-2" data-name="iCON">
          <path id="path2168" d="M115.73,57.45h1.47v1.94l3.51-1.94h2.63V50.31h-7.61Zm1-6.16h5.65v5.18h-1.9l-2.28,1.26V56.47h-1.47Z"/>
          <rect id="rect2170" width="0.98" height="0.98" transform="translate(117.52 53.43)"/>
          <rect id="rect2172" width="0.98" height="0.98" transform="translate(119.05 53.43)"/>
          <rect id="rect2174" width="0.98" height="0.98" transform="translate(120.59 53.43)"/>
        </g>
      </g>
      <g id="upper_left">
        <g class="cls-27" transform="matrix(1, 0, 0, 1, 8.57, 8)">
          <path id="path2142-2" data-name="path2142" class="cls-1" d="M24.18,17.53H62a6.61,6.61,0,0,1,6.61,6.61V68.53H24.18a6.61,6.61,0,0,1-6.61-6.61V24.14a6.61,6.61,0,0,1,6.61-6.61Z" transform="translate(-8.57 -8)"/>
        </g>
        <text id="TRANSFORM" class="cls-3" transform="translate(33.67 28.72)"><tspan x="0" y="0">T</tspan><tspan class="cls-14" y="0">R</tspan><tspan y="0">ANSFORM</tspan></text>
        <g id="Modernize">
          <text id="_4" data-name="• " class="cls-2" transform="translate(33.55 33.8)"><tspan x="0" y="0">• </tspan></text>
          <text id="M-2" data-name="M" class="cls-12" transform="translate(34.54 33.8)"><tspan x="0" y="0">M</tspan></text>
          <text id="ode" class="cls-2" transform="translate(36.16 33.8)"><tspan x="0" y="0">ode</tspan></text>
          <text id="r" class="cls-2" transform="translate(39.39 33.8)"><tspan x="0" y="0">r</tspan></text>
          <text id="ni" class="cls-2" transform="translate(40.05 33.8)"><tspan x="0" y="0">ni</tspan></text>
          <text id="z-2" data-name="z" class="cls-13" transform="translate(41.63 33.8)"><tspan x="0" y="0">z</tspan></text>
          <text id="e-2" data-name="e" class="cls-15" transform="translate(42.47 33.8)"><tspan x="0" y="0">e</tspan></text>
        </g>
        <g id="Integrate">
          <text id="_5" data-name="• " class="cls-2" transform="translate(33.51 36.2)"><tspan x="0" y="0">• </tspan></text>
          <text id="I" class="cls-12" transform="translate(34.5 36.2)"><tspan x="0" y="0">I</tspan></text>
          <text id="nt" class="cls-2" transform="translate(35 36.2)"><tspan x="0" y="0">nt</tspan></text>
          <text id="e-3" data-name="e" class="cls-2" transform="translate(36.75 36.2)"><tspan x="0" y="0">e</tspan></text>
          <text id="grat" class="cls-13" transform="translate(37.75 36.2)"><tspan x="0" y="0">grat</tspan></text>
          <text id="e-4" data-name="e" class="cls-2" transform="translate(41.11 36.2)"><tspan x="0" y="0">e</tspan></text>
        </g>
        <g id="Recycle">
          <text id="_6" data-name="• " class="cls-2" transform="translate(33.51 38.6)"><tspan x="0" y="0">• </tspan></text>
          <text id="R-2" data-name="R" class="cls-2" transform="translate(34.5 38.6)"><tspan x="0" y="0">R</tspan></text>
          <text id="e-5" data-name="e" class="cls-2" transform="translate(35.58 38.6)"><tspan x="0" y="0">e</tspan></text>
          <text id="c" class="cls-16" transform="translate(36.58 38.6)"><tspan x="0" y="0">c</tspan></text>
          <text id="y" class="cls-13" transform="translate(37.52 38.6)"><tspan x="0" y="0">y</tspan></text>
          <text id="cle" class="cls-2" transform="translate(38.44 38.6)"><tspan x="0" y="0">cle</tspan></text>
        </g>
        <g id="Corner-3" data-name="Corner">
          <path id="path2348" class="cls-17" d="M24.18,17.53h8.1A14.72,14.72,0,0,1,17.57,32.24v-8.1a6.61,6.61,0,0,1,6.61-6.61Z"/>
          <text id="_01" data-name="01" class="cls-6" transform="translate(20.62 25.06)"><tspan x="0" y="0">01</tspan></text>
        </g>
        <path id="path2176" d="M32.44,54.19a2.14,2.14,0,1,0-2.95,0,3.78,3.78,0,0,0-2.29,3.46v1.52h7.54V57.66a3.77,3.77,0,0,0-2.3-3.47ZM31,51.42a1.24,1.24,0,1,1-1.23,1.24A1.24,1.24,0,0,1,31,51.42Zm-2.9,6.24a2.87,2.87,0,0,1,2.36-2.81v3.43H28.1Zm5.74.62h-2.4V56.81h1.05v-1H31.44v-1a2.87,2.87,0,0,1,2.4,2.82Z"/>
      </g>
      <g id="Center">
        <g id="Group_16" data-name="Group 16">
          <path id="path2342" class="cls-18" d="M75.29,73.11H44a2.31,2.31,0,0,1-2.48-2.29c1.29-15.57,15.63-28,33.59-29.13a2.36,2.36,0,0,1,2.65,2.15V71a2.33,2.33,0,0,1-2.47,2.11Z"/>
          <path id="path2344" class="cls-19" d="M74.19,71V43.84a2.27,2.27,0,0,1,2.5-2.15c17,1.12,30.56,13.56,31.78,29.13a2.23,2.23,0,0,1-2.34,2.29H76.53A2.25,2.25,0,0,1,74.19,71Z"/>
          <path id="path2346" class="cls-20" d="M79.2,76.89h27.12a2.15,2.15,0,0,1,2.15,2.29,31.5,31.5,0,0,1-29.12,29.13,2.16,2.16,0,0,1-2.3-2.15V79a2.15,2.15,0,0,1,2.15-2.11Z"/>
          <path id="path2356" class="cls-21" d="M73,79v27.12a2.16,2.16,0,0,1-2.3,2.15A31.5,31.5,0,0,1,41.53,79.18a2.15,2.15,0,0,1,2.15-2.29H70.8A2.15,2.15,0,0,1,73,79Z"/>
        </g>
        <g id="Center-2" data-name="Center">
          <g id="Outline">
            <circle id="circle2358" class="cls-22" cx="24.62" cy="24.62" r="24.62" transform="translate(50.38 49.79)"/>
            <circle id="circle2360" class="cls-1" cx="22.38" cy="22.38" r="22.38" transform="translate(52.62 52.03)"/>
          </g>
          <g id="Kaayman_Approach" data-name="Kaayman Approach">
            <text id="KAAYMAN" class="cls-23" transform="translate(64.03 76.78)"><tspan x="0" y="0">KAAYMAN</tspan></text>
            <text id="THE" class="cls-24" transform="translate(72.54 70.06)"><tspan x="0" y="0">THE</tspan></text>
            <text id="APPROACH" class="cls-24" transform="translate(76.54 82.87)"><tspan x="-9.933" y="0">APPROACH</tspan></text>
          </g>
          <g id="Curved_Text" data-name="Curved Text">
            <g id="Development_Factory" data-name="Development Factory">
              <text id="D" class="cls-25" transform="matrix(0.864, -0.504, 0.503, 0.865, 59.11, 51.74)"><tspan x="0" y="0">D</tspan></text>
              <text id="e-6" data-name="e" class="cls-25" transform="translate(61.32 50.46) rotate(-26.828)"><tspan x="0" y="0">e</tspan></text>
              <text id="v" class="cls-25" transform="matrix(0.925, -0.379, 0.379, 0.925, 63.03, 49.63)"><tspan x="0" y="0">v</tspan></text>
              <text id="e-7" data-name="e" class="cls-25" transform="matrix(0.948, -0.319, 0.319, 0.948, 64.7, 48.94)"><tspan x="0" y="0">e</tspan></text>
              <text id="l" class="cls-25" transform="translate(66.52 48.34) rotate(-16.026)"><tspan x="0" y="0">l</tspan></text>
              <text id="o" class="cls-25" transform="matrix(0.975, -0.221, 0.221, 0.975, 67.36, 48.08)"><tspan x="0" y="0">o</tspan></text>
              <text id="p-2" data-name="p" class="cls-25" transform="matrix(0.989, -0.147, 0.147, 0.989, 69.39, 47.62)"><tspan x="0" y="0">p</tspan></text>
              <text id="m-3" data-name="m" class="cls-25" transform="matrix(0.999, -0.051, 0.05, 0.999, 71.53, 47.27)"><tspan x="0" y="0">m</tspan></text>
              <text id="e-8" data-name="e" class="cls-25" transform="matrix(0.999, 0.041, -0.04, 0.999, 74.73, 47.13)"><tspan x="0" y="0">e</tspan></text>
              <text id="n-2" data-name="n" class="cls-25" transform="translate(76.62 47.2) rotate(6.47)"><tspan x="0" y="0">n</tspan></text>
              <text id="t-2" data-name="t" class="cls-25" transform="matrix(0.986, 0.169, -0.169, 0.986, 78.74, 47.44)"><tspan x="0" y="0">t</tspan></text>
              <text id="F" class="cls-25" transform="matrix(0.968, 0.251, -0.251, 0.968, 80.76, 47.81)"><tspan x="0" y="0">F</tspan></text>
              <text id="a-2" data-name="a" class="cls-25" transform="matrix(0.952, 0.307, -0.307, 0.952, 82.4, 48.23)"><tspan x="0" y="0">a</tspan></text>
              <text id="c-2" data-name="c" class="cls-25" transform="matrix(0.931, 0.365, -0.365, 0.931, 84.12, 48.79)"><tspan x="0" y="0">c</tspan></text>
              <text id="t-3" data-name="t" class="cls-25" transform="matrix(0.91, 0.414, -0.414, 0.91, 85.77, 49.44)"><tspan x="0" y="0">t</tspan></text>
              <text id="o-2" data-name="o" class="cls-25" transform="matrix(0.885, 0.465, -0.465, 0.885, 86.91, 49.94)"><tspan x="0" y="0">o</tspan></text>
              <text id="r-3" data-name="r" class="cls-25" transform="translate(88.76 50.93) rotate(31.569)"><tspan x="0" y="0">r</tspan></text>
              <text id="y-2" data-name="y" class="cls-25" transform="matrix(0.823, 0.569, -0.569, 0.823, 89.919, 51.62)"><tspan x="0" y="0">y</tspan></text>
            </g>
            <g id="Comsulting_Services" data-name="Comsulting Services">
              <text id="C-3" data-name="C" class="cls-26" transform="matrix(0.94, -0.34, 0.34, 0.94, 86.66, 103.33)"><tspan x="0" y="0">C</tspan></text>
              <text id="o-3" data-name="o" class="cls-26" transform="translate(88.35 102.72) rotate(-23.59)"><tspan x="0" y="0">o</tspan></text>
              <text id="n-3" data-name="n" class="cls-26" transform="translate(89.95 102.01) rotate(-27.35)"><tspan x="0" y="0">n</tspan></text>
              <text id="s-2" data-name="s" class="cls-26" transform="translate(91.49 101.21) rotate(-30.64)"><tspan x="0" y="0">s</tspan></text>
              <text id="u" class="cls-26" transform="translate(92.6 100.56) rotate(-34.05)"><tspan x="0" y="0">u</tspan></text>
              <text id="l-2" data-name="l" class="cls-26" transform="translate(94.03 99.57) rotate(-36.95)"><tspan x="0" y="0">l</tspan></text>
              <text id="t-4" data-name="t" class="cls-26" transform="translate(94.65 99.11) rotate(-39.08)"><tspan x="0" y="0">t</tspan></text>
              <text id="i-2" data-name="i" class="cls-26" transform="translate(95.44 98.46) rotate(-41.11)"><tspan x="0" y="0">i</tspan></text>
              <text id="n-4" data-name="n" class="cls-26" transform="translate(96.06 97.94) rotate(-44.08)"><tspan x="0" y="0">n</tspan></text>
              <text id="g" class="cls-26" transform="matrix(0.666, -0.746, 0.746, 0.666, 97.33, 96.7)"><tspan x="0" y="0">g</tspan></text>
              <text id="S-3" data-name="S" class="cls-26" transform="translate(98.93 94.84) rotate(-53.57)"><tspan x="0" y="0">S</tspan></text>
              <text id="e-9" data-name="e" class="cls-26" transform="matrix(0.541, -0.841, 0.841, 0.541, 99.87, 93.56)"><tspan x="0" y="0">e</tspan></text>
              <text id="r-4" data-name="r" class="cls-26" transform="matrix(0.496, -0.868, 0.868, 0.496, 100.73, 92.22)"><tspan x="0" y="0">r</tspan></text>
              <text id="v-2" data-name="v" class="cls-26" transform="translate(101.3 91.22) rotate(-63.39)"><tspan x="0" y="0">v</tspan></text>
              <text id="i-3" data-name="i" class="cls-26" transform="translate(101.96 89.89) rotate(-65.88)"><tspan x="0" y="0">i</tspan></text>
              <text id="c-4" data-name="c" class="cls-26" transform="translate(102.29 89.16) rotate(-68.37)"><tspan x="0" y="0">c</tspan></text>
              <text id="e-10" data-name="e" class="cls-26" transform="matrix(0.319, -0.948, 0.948, 0.319, 102.8, 87.87)"><tspan x="0" y="0">e</tspan></text>
              <text id="s-4" data-name="s" class="cls-26" transform="translate(103.3 86.37) rotate(-74.59)"><tspan x="0" y="0">s</tspan></text>
            </g>
            <g id="Outsourcing_Services" data-name="Outsourcing Services">
              <text id="O-4" data-name="O" class="cls-26" transform="matrix(0.345, 0.939, -0.939, 0.345, 46.07, 84.82)"><tspan x="0" y="0">O</tspan></text>
              <text id="u-2" data-name="u" class="cls-26" transform="matrix(0.404, 0.915, -0.915, 0.404, 46.81, 86.81)"><tspan x="0" y="0">u</tspan></text>
              <text id="t-5" data-name="t" class="cls-26" transform="matrix(0.445, 0.895, -0.895, 0.445, 47.49, 88.34)"><tspan x="0" y="0">t</tspan></text>
              <text id="s-5" data-name="s" class="cls-26" transform="matrix(0.48, 0.877, -0.877, 0.48, 47.95, 89.27)"><tspan x="0" y="0">s</tspan></text>
              <text id="o-5" data-name="o" class="cls-26" transform="matrix(0.523, 0.852, -0.852, 0.523, 48.53, 90.34)"><tspan x="0" y="0">o</tspan></text>
              <text id="u-3" data-name="u" class="cls-26" transform="matrix(0.573, 0.82, -0.82, 0.573, 49.43, 91.8)"><tspan x="0" y="0">u</tspan></text>
              <text id="r-5" data-name="r" class="cls-26" transform="matrix(0.611, 0.792, -0.792, 0.611, 50.4, 93.16)"><tspan x="0" y="0">r</tspan></text>
              <text id="c-5" data-name="c" class="cls-26" transform="matrix(0.643, 0.766, -0.766, 0.643, 51, 93.96)"><tspan x="0" y="0">c</tspan></text>
              <text id="i-4" data-name="i" class="cls-26" transform="matrix(0.67, 0.743, -0.743, 0.67, 51.88, 94.99)"><tspan x="0" y="0">i</tspan></text>
              <text id="n-5" data-name="n" class="cls-26" transform="matrix(0.697, 0.717, -0.717, 0.697, 52.38, 95.55)"><tspan x="0" y="0">n</tspan></text>
              <text id="g-2" data-name="g" class="cls-26" transform="translate(53.57 96.77) rotate(41.028)"><tspan x="0" y="0">g</tspan></text>
              <text id="S-6" data-name="S" class="cls-26" transform="matrix(0.792, 0.611, -0.611, 0.792, 55.36, 98.34)"><tspan x="0" y="0">S</tspan></text>
              <text id="e-11" data-name="e" class="cls-26" transform="matrix(0.834, 0.552, -0.552, 0.834, 56.57, 99.28)"><tspan x="0" y="0">e</tspan></text>
              <text id="r-6" data-name="r" class="cls-26" transform="matrix(0.859, 0.512, -0.512, 0.859, 57.85, 100.15)"><tspan x="0" y="0">r</tspan></text>
              <text id="v-3" data-name="v" class="cls-26" transform="matrix(0.871, 0.491, -0.491, 0.871, 58.76, 100.72)"><tspan x="0" y="0">v</tspan></text>
              <text id="i-5" data-name="i" class="cls-26" transform="matrix(0.889, 0.459, -0.459, 0.888, 60.04, 101.43)"><tspan x="0" y="0">i</tspan></text>
              <text id="c-6" data-name="c" class="cls-26" transform="matrix(0.907, 0.42, -0.419, 0.908, 60.7, 101.78)"><tspan x="0" y="0">c</tspan></text>
              <text id="e-12" data-name="e" class="cls-26" transform="matrix(0.924, 0.381, -0.381, 0.924, 61.92, 102.35)"><tspan x="0" y="0">e</tspan></text>
              <text id="s-7" data-name="s" class="cls-26" transform="matrix(0.945, 0.328, -0.328, 0.945, 63.35, 102.94)"><tspan x="0" y="0">s</tspan></text>
            </g>
          </g>
        </g>
      </g>
    </g>
  </g>
</svg>
